…
{% highlight r %}
speech_words2 %>%
  select(-total) %>%
  arrange(desc(tf_idf))
{% endhighlight %}



{% highlight text %}
## # A tibble: 34,734 × 6
##        id        word     n         tf      idf     tf_idf
##    <fctr>       <chr> <int>      <dbl>    <dbl>      <dbl>
## 1      14      arrive     1 0.01851852 4.060443 0.07519339
## 2      14 upbraidings     1 0.01851852 4.060443 0.07519339
## 3      14   incurring     1 0.01851852 3.367296 0.06235733
## 4      14    violated     1 0.01851852 3.367296 0.06235733
## 5      14   willingly     1 0.01851852 3.367296 0.06235733
## 6      14 injunctions     1 0.01851852 2.961831 0.05484872
## 7      14   knowingly     1 0.01851852 2.961831 0.05484872
## 8      14    previous     1 0.01851852 2.961831 0.05484872
## 9      14   witnesses     1 0.01851852 2.961831 0.05484872
## 10     14     besides     1 0.01851852 2.674149 0.04952127
## # ... with 34,724 more rows
…
{% highlight r %}
sw_sent %>% 
  group_by(Speaker,id) %>% 
  summarize(speech_score=sum(score),speech_sent_words=sum(is_scored)) %>% 
  left_join(total_words,by="id") %>% 
  mutate(speech_score=speech_score/total,speech_sent_words=speech_sent_words/total) %>% 
  arrange(speech_score) %>% 
  print(n=nrow(.))
{% endhighlight %}



{% highlight text %}
## Source: local data frame [58 x 5]
## Groups: Speaker [39]
## 
##                   Speaker     id speech_score speech_sent_words total
##                    <fctr> <fctr>        <dbl>             <dbl> <int>
## 1         Abraham Lincoln     32  0.001426534        0.07275321   701
## 2         Abraham Lincoln     31  0.002199615        0.06983778  3637
## 3           James Madison     19  0.010734930        0.09331131  1211
## 4         John F. Kennedy     56  0.010989011        0.10036630  1365
## 5   Franklin D. Roosevelt     50  0.011519473        0.08831596  1823
## 6          Woodrow Wilson     44  0.011716462        0.08787346  1707
## 7   Franklin D. Roosevelt     49  0.012227539        0.09409888  1881
## 8  William Henry Harrison     26  0.013115916        0.06865178  8463
## 9   Franklin D. Roosevelt     51  0.015613383        0.06022305  1345
## 10         Andrew Jackson     24  0.016992353        0.07306712  1177
## 11           Barack Obama     68  0.017827529        0.08499171  2412
## 12       Martin Van Buren     25  0.018452076        0.08867248  3902
## 13          Ronald Reagan     61  0.018457752        0.07752256  2438
## 14       Thomas Jefferson     17  0.019852262        0.07710065  2166
##  [ reached getOption("max.print") -- omitted 44 rows ]
…
